<?xml version="1.0" encoding="iso-8859-1"?>
<!-- Generator: Adobe Illustrator 19.0.0, SVG Export Plug-In . SVG Version: 6.00 Build 0)  -->
<svg version="1.1" id="Capa_1" xmlns="http://www.w3.org/2000/svg" xmlns:xlink="http://www.w3.org/1999/xlink" x="0px" y="0px"
	 viewBox="0 0 512 512" style="enable-background:new 0 0 512 512;" xml:space="preserve" fill="#fff">
<g>
	<g>
		<g>
			<path d="M469.333,0h-256c-23.564,0-42.667,19.103-42.667,42.667v74.667c0,5.891,4.776,10.667,10.667,10.667h21.333
				c5.891,0,10.667-4.776,10.667-10.667V42.667h256v426.667h-256v-74.667c0-5.891-4.776-10.667-10.667-10.667h-21.333
				c-5.891,0-10.667,4.776-10.667,10.667v74.667c0,23.564,19.102,42.667,42.667,42.667h256C492.898,512,512,492.898,512,469.333
				V42.667C512,19.103,492.898,0,469.333,0z"/>
			<path d="M238.198,344.073c-2.25,2.021-3.531,4.906-3.531,7.927v21.333c0,4.229,2.5,8.063,6.375,9.76
				c1.375,0.615,2.844,0.906,4.292,0.906c2.615,0,5.198-0.969,7.208-2.802l128-117.333C382.75,261.844,384,258.99,384,256
				s-1.25-5.844-3.458-7.865l-128-117.333c-3.125-2.844-7.656-3.625-11.5-1.896c-3.875,1.698-6.375,5.531-6.375,9.76V160
				c0,3.021,1.281,5.906,3.531,7.927l74.151,66.74H10.667C4.771,234.667,0,239.438,0,245.333v21.333
				c0,5.896,4.771,10.667,10.667,10.667h301.682L238.198,344.073z"/>
		</g>
	</g>
</g>
<g>
</g>
<g>
</g>
<g>
</g>
<g>
</g>
<g>
</g>
<g>
</g>
<g>
</g>
<g>
</g>
<g>
</g>
<g>
</g>
<g>
</g>
<g>
</g>
<g>
</g>
<g>
</g>
<g>
</g>
</svg>
